....................
----------------------------------------------------------------------
Ran 20 tests in 0.021s

OK
Name             Stmts   Miss Branch BrPart  Cover   Missing
------------------------------------------------------------
Collatz.py          54      0     20      0   100%
TestCollatz.py     103      5      0      0    95%   48, 63, 99, 107, 135
------------------------------------------------------------
TOTAL              157      5     20      0    97%
